{
  "kind": "collectionType",
  "collectionName": "trd_languages",
  "info": {
    "singularName": "trd-language",
    "pluralName": "trd-languages",
    "displayName": "trd_language"
  },
  "options": {
    "draftAndPublish": true
  },
  "pluginOptions": {},
  "attributes": {
    "name": {
      "type": "string"
    },
    "code": {
      "type": "string"
    },
    "name_in_english": {
      "type": "string"
    },
    "audio_text": {
      "type": "string"
    },
    "image": {
      "allowedTypes": [
        "images",
        "files",
        "videos"
      ],
      "type": "media",
      "multiple": false
    }
  }
}
