{
  "collectionName": "components_trd_gender_type_trd_gender_types",
  "info": {
    "displayName": "trd_gender_type",
    "icon": "address-card",
    "description": ""
  },
  "options": {},
  "attributes": {
    "trd_gender": {
      "type": "relation",
      "relation": "oneToOne",
      "target": "api::trd-gender.trd-gender"
    }
  }
}
